…
ARV_notes
```

```
## # A tibble: 25 x 8
## # Groups:   ID [25]
##       ID draw_date  days arv_note arv_matches_date arv_date adj_time
##    <int> <chr>     <dbl> <chr>    <lgl>            <chr>       <dbl>
##  1 10066 10-Mar-14   906 ARV?     TRUE             10-Mar-…        0
##  2 10203 27-Mar-13   530 ARV sta… TRUE             27-Mar-…        0
##  3 10428 15-May-13   846 ARV sta… TRUE             15-May-…        0
##  4 10435 15-May-12   505 ARV sta… TRUE             15-May-…        0
##  5 10742 25-Feb-14   251 "ARV st… FALSE            12-Mar-…      -15
##  6 40061 21-May-10   188 ARV sta… TRUE             21-May-…        0
##  7 40094 19-Mar-13  1019 ARV sta… TRUE             19-Mar-…        0
##  8 40100 3-Nov-10    301 ARV STA… TRUE             3-Nov-10        0
##  9 40168 5-Sep-12    754 ARV sta… TRUE             5-Sep-12        0
## 10 40250 13-Jul-12   709 ARV sta… TRUE             13-Jul-…        0
## # … with 15 more rows, and 1 more variable: arv_day <dbl>
```
…
